/commands/custom/<Alt>F1                   xfce4-popup-applicationsmenu
/commands/custom/<Alt>F2                   xfce4-appfinder --collapsed
/commands/custom/<Alt>F2/startup-notify    true
/commands/custom/<Alt>F3                   xfce4-appfinder
/commands/custom/<Alt>F3/startup-notify    true
/commands/custom/<Alt>Print                xfce4-screenshooter -w
/commands/custom/<Control><Alt>Escape      xkill
/commands/custom/override                  true
/commands/custom/<Primary><Alt>Delete      xflock4
/commands/custom/<Primary>Escape           xfdesktop --menu
/commands/custom/Print                     xfce4-screenshooter
/commands/custom/<Super>d                  rofi -show drun
/commands/custom/<Super>e                  Thunar
/commands/custom/<Super>l                  xflock4
/commands/custom/<Super>m                  xfce4-terminal -e "cmus"
/commands/custom/<Super>n                  xfce4-terminal -e 'vim  /home/rphl/Documents/Notes/index.md'
/commands/custom/<Super>p                  xfce4-display-settings --minimal
/commands/custom/<Super>Return             xfce4-terminal -e "vim"
/commands/custom/twosuperior               xfce4-terminal
/commands/custom/XF86AudioMedia            pragha
/commands/custom/XF86AudioNext             pragha --next
/commands/custom/XF86AudioPlay             pragha --pause
/commands/custom/XF86AudioPrev             pragha --prev
/commands/custom/XF86Calculator            galculator
/commands/custom/XF86Calendar              orage
/commands/custom/XF86Display               xfce4-display-settings --minimal
/commands/custom/XF86LogOff                xfce4-session-logout
/commands/custom/XF86Mail                  exo-open --launch MailReader
/commands/custom/XF86Memo                  xfce4-notes
/commands/custom/XF86WWW                   exo-open --launch WebBrowser
/commands/default/<Alt>F1                  xfce4-popup-applicationsmenu
/commands/default/<Alt>F2                  xfce4-appfinder --collapsed
/commands/default/<Alt>F2/startup-notify   true
/commands/default/<Alt>F3                  xfce4-appfinder
/commands/default/<Alt>F3/startup-notify   true
/commands/default/<Alt>Print               xfce4-screenshooter -w
/commands/default/<Control><Alt>Escape     xkill
/commands/default/<Primary><Alt>Delete     xflock4
/commands/default/<Primary><Alt>l          xflock4
/commands/default/<Primary><Alt>t          exo-open --launch TerminalEmulator
/commands/default/<Primary>Escape          xfdesktop --menu
/commands/default/Print                    xfce4-screenshooter
/commands/default/<Super>p                 xfce4-display-settings --minimal
/commands/default/XF86AudioMedia           pragha
/commands/default/XF86AudioNext            pragha --next
/commands/default/XF86AudioPlay            pragha --pause
/commands/default/XF86AudioPrev            pragha --prev
/commands/default/XF86Calculator           galculator
/commands/default/XF86Calendar             orage
/commands/default/XF86Display              xfce4-display-settings --minimal
/commands/default/XF86Explorer             Thunar
/commands/default/XF86LogOff               xfce4-session-logout
/commands/default/XF86Mail                 exo-open --launch MailReader
/commands/default/XF86Memo                 xfce4-notes
/commands/default/XF86Terminal             xfce4-terminal
/commands/default/XF86WWW                  exo-open --launch WebBrowser
/providers                                 <<UNSUPPORTED>>
/xfwm4/custom/<Alt>F11                     fullscreen_key
/xfwm4/custom/<Alt>F12                     above_key
/xfwm4/custom/<Alt>F6                      stick_window_key
/xfwm4/custom/<Alt>F7                      move_window_key
/xfwm4/custom/<Alt><Shift>Tab              cycle_reverse_windows_key
/xfwm4/custom/<Alt>Tab                     cycle_windows_key
/xfwm4/custom/Down                         down_key
/xfwm4/custom/Escape                       cancel_key
/xfwm4/custom/Left                         left_key
/xfwm4/custom/override                     true
/xfwm4/custom/<Primary>F10                 workspace_10_key
/xfwm4/custom/<Primary>F11                 workspace_11_key
/xfwm4/custom/<Primary>F12                 workspace_12_key
/xfwm4/custom/<Primary><Shift><Alt>Left    move_window_prev_workspace_key
/xfwm4/custom/<Primary><Shift><Alt>Right   move_window_next_workspace_key
/xfwm4/custom/<Primary><Shift><Alt>Up      move_window_up_key
/xfwm4/custom/Right                        right_key
/xfwm4/custom/<Shift><Alt>Page_Down        lower_window_key
/xfwm4/custom/<Shift><Alt>Page_Up          raise_window_key
/xfwm4/custom/<Shift><Super>1              move_window_workspace_1_key
/xfwm4/custom/<Shift><Super>2              move_window_workspace_2_key
/xfwm4/custom/<Shift><Super>3              move_window_workspace_3_key
/xfwm4/custom/<Shift><Super>4              move_window_workspace_4_key
/xfwm4/custom/<Shift><Super>5              move_window_workspace_5_key
/xfwm4/custom/<Shift><Super>6              move_window_workspace_6_key
/xfwm4/custom/<Shift><Super>7              move_window_workspace_7_key
/xfwm4/custom/<Shift><Super>8              move_window_workspace_8_key
/xfwm4/custom/<Shift><Super>9              move_window_workspace_9_key
/xfwm4/custom/<Shift><Super>Left           left_workspace_key
/xfwm4/custom/<Shift><Super>Right          right_workspace_key
/xfwm4/custom/<Super>ampersand             workspace_1_key
/xfwm4/custom/<Super>apostrophe            workspace_4_key
/xfwm4/custom/<Super>ccedilla              workspace_9_key
/xfwm4/custom/<Super>Down                  hide_window_key
/xfwm4/custom/<Super>eacute                workspace_2_key
/xfwm4/custom/<Super>egrave                workspace_7_key
/xfwm4/custom/<Super>Left                  tile_left_key
/xfwm4/custom/<Super>minus                 workspace_6_key
/xfwm4/custom/<Super>parenleft             workspace_5_key
/xfwm4/custom/<Super>q                     close_window_key
/xfwm4/custom/<Super>quotedbl              workspace_3_key
/xfwm4/custom/<Super>r                     resize_window_key
/xfwm4/custom/<Super>Right                 tile_right_key
/xfwm4/custom/<Super>Tab                   switch_window_key
/xfwm4/custom/<Super>underscore            workspace_8_key
/xfwm4/custom/<Super>Up                    maximize_window_key
/xfwm4/custom/Up                           up_key
/xfwm4/default/<Alt>Delete                 del_workspace_key
/xfwm4/default/<Alt>F10                    maximize_window_key
/xfwm4/default/<Alt>F11                    fullscreen_key
/xfwm4/default/<Alt>F12                    above_key
/xfwm4/default/<Alt>F4                     close_window_key
/xfwm4/default/<Alt>F6                     stick_window_key
/xfwm4/default/<Alt>F7                     move_window_key
/xfwm4/default/<Alt>F8                     resize_window_key
/xfwm4/default/<Alt>F9                     hide_window_key
/xfwm4/default/<Alt>Insert                 add_workspace_key
/xfwm4/default/<Alt><Shift>Tab             cycle_reverse_windows_key
/xfwm4/default/<Alt>space                  popup_menu_key
/xfwm4/default/<Alt>Tab                    cycle_windows_key
/xfwm4/default/Down                        down_key
/xfwm4/default/Escape                      cancel_key
/xfwm4/default/Left                        left_key
/xfwm4/default/<Primary><Alt>d             show_desktop_key
/xfwm4/default/<Primary><Alt>Down          down_workspace_key
/xfwm4/default/<Primary><Alt>End           move_window_next_workspace_key
/xfwm4/default/<Primary><Alt>Home          move_window_prev_workspace_key
/xfwm4/default/<Primary><Alt>KP_1          move_window_workspace_1_key
/xfwm4/default/<Primary><Alt>KP_2          move_window_workspace_2_key
/xfwm4/default/<Primary><Alt>KP_3          move_window_workspace_3_key
/xfwm4/default/<Primary><Alt>KP_4          move_window_workspace_4_key
/xfwm4/default/<Primary><Alt>KP_5          move_window_workspace_5_key
/xfwm4/default/<Primary><Alt>KP_6          move_window_workspace_6_key
/xfwm4/default/<Primary><Alt>KP_7          move_window_workspace_7_key
/xfwm4/default/<Primary><Alt>KP_8          move_window_workspace_8_key
/xfwm4/default/<Primary><Alt>KP_9          move_window_workspace_9_key
/xfwm4/default/<Primary><Alt>Left          left_workspace_key
/xfwm4/default/<Primary><Alt>Right         right_workspace_key
/xfwm4/default/<Primary><Alt>Up            up_workspace_key
/xfwm4/default/<Primary>F1                 workspace_1_key
/xfwm4/default/<Primary>F10                workspace_10_key
/xfwm4/default/<Primary>F11                workspace_11_key
/xfwm4/default/<Primary>F12                workspace_12_key
/xfwm4/default/<Primary>F2                 workspace_2_key
/xfwm4/default/<Primary>F3                 workspace_3_key
/xfwm4/default/<Primary>F4                 workspace_4_key
/xfwm4/default/<Primary>F5                 workspace_5_key
/xfwm4/default/<Primary>F6                 workspace_6_key
/xfwm4/default/<Primary>F7                 workspace_7_key
/xfwm4/default/<Primary>F8                 workspace_8_key
/xfwm4/default/<Primary>F9                 workspace_9_key
/xfwm4/default/<Primary><Shift><Alt>Left   move_window_left_key
/xfwm4/default/<Primary><Shift><Alt>Right  move_window_right_key
/xfwm4/default/<Primary><Shift><Alt>Up     move_window_up_key
/xfwm4/default/Right                       right_key
/xfwm4/default/<Shift><Alt>Page_Down       lower_window_key
/xfwm4/default/<Shift><Alt>Page_Up         raise_window_key
/xfwm4/default/<Super>Tab                  switch_window_key
/xfwm4/default/Up                          up_key
